<?xml version="1.0" encoding="UTF-8" standalone="no"?>
<svg width="1024px" height="1024px" viewBox="0 0 1024 1024" version="1.1" xmlns="http://www.w3.org/2000/svg" xmlns:xlink="http://www.w3.org/1999/xlink" xmlns:sketch="http://www.bohemiancoding.com/sketch/ns">
    <!-- Generator: Sketch 3.3.3 (12072) - http://www.bohemiancoding.com/sketch -->
    <title>1024</title>
    <desc>Created with Sketch.</desc>
    <defs></defs>
    <g id="Page-1" stroke="none" stroke-width="1" fill="none" fill-rule="evenodd" sketch:type="MSPage">
        <g id="1024" sketch:type="MSArtboardGroup" fill="#D9D5D5">
            <path d="M280,585.880844 L280,130 L180,130 L180,585.880844 C195.221131,578.894868 212.155718,575 230,575 C247.844282,575 264.778869,578.894868 280.000005,585.880847 Z M280,804.119181 L280,900 L180,900 L180,804.119181 C195.221131,811.105132 212.155718,815 230,815 C247.844282,815 264.778869,811.105132 280.000005,804.119153 Z" id="Rectangle-1-Copy" sketch:type="MSShapeGroup"></path>
            <path d="M229,795 C284.228475,795 329,750.228475 329,695 C329,639.771525 284.228475,595 229,595 C173.771525,595 129,639.771525 129,695 C129,750.228475 173.771525,795 229,795 Z M229,757.5 C263.517797,757.5 291.5,729.517797 291.5,695 C291.5,660.482203 263.517797,632.5 229,632.5 C194.482203,632.5 166.5,660.482203 166.5,695 C166.5,729.517797 194.482203,757.5 229,757.5 Z" id="Oval-1-Copy-5" sketch:type="MSShapeGroup"></path>
            <path d="M562,272.821244 L562,63 L462,63 L462,270.98503 C476.699094,264.562741 492.933486,261 510,261 C528.629759,261 546.267974,265.245306 562.000008,272.821282 Z M562,489.178722 L562,963 L462,963 L462,491.01497 C476.699094,497.437259 492.933486,501 510,501 C528.629759,501 546.267974,496.754694 562.000008,489.178718 Z" id="Rectangle-1" sketch:type="MSShapeGroup"></path>
            <path d="M510,480 C565.228475,480 610,435.228475 610,380 C610,324.771525 565.228475,280 510,280 C454.771525,280 410,324.771525 410,380 C410,435.228475 454.771525,480 510,480 Z M510,442.5 C544.517797,442.5 572.5,414.517797 572.5,380 C572.5,345.482203 544.517797,317.5 510,317.5 C475.482203,317.5 447.5,345.482203 447.5,380 C447.5,414.517797 475.482203,442.5 510,442.5 Z" id="Oval-1-Copy" sketch:type="MSShapeGroup"></path>
            <path d="M851,428.880819 L851,130 L751,130 L751,428.880819 C766.221131,421.894868 783.155718,418 801,418 C818.844282,418 835.778869,421.894868 851.000005,428.880847 Z M851,647.119181 L851,900 L751,900 L751,647.119181 C766.221131,654.105132 783.155718,658 801,658 C818.844282,658 835.778869,654.105132 851.000005,647.119153 Z" id="Rectangle-1-Copy-2" sketch:type="MSShapeGroup"></path>
            <path d="M800,637 C855.228475,637 900,592.228475 900,537 C900,481.771525 855.228475,437 800,437 C744.771525,437 700,481.771525 700,537 C700,592.228475 744.771525,637 800,637 Z M800,599.5 C834.517797,599.5 862.5,571.517797 862.5,537 C862.5,502.482203 834.517797,474.5 800,474.5 C765.482203,474.5 737.5,502.482203 737.5,537 C737.5,571.517797 765.482203,599.5 800,599.5 Z" id="Oval-1-Copy-6" sketch:type="MSShapeGroup"></path>
        </g>
    </g>
</svg>